<?xml version="1.0" ?>
<robot xmlns:xacro="http://ros.org/wiki/xacro">

  <xacro:property name="meshes_folder" value="package://tripebot_description/meshes/nao"/>

  <xacro:macro name="head_links">

    <link name="neck">
      <inertial>
        <mass value="0.07842"/>
        <inertia ixx="1.60324e-05" 
                 ixy="1.57e-09" 
                 ixz="3.16276e-09" 
                 iyy="1.70394e-05" 
                 iyz="-5.295e-08" 
                 izz="5.53372e-06"/>
        <origin rpy="0 0 0" xyz="-1e-05 0 -0.02742"/>
      </inertial>
      <visual>
        <geometry>
          <mesh filename="${meshes_folder}/neck.dae" scale="0.1 0.1 0.1"/>
        </geometry>
        <origin rpy="0 0 0" xyz="0 0 0"/>
      </visual>
      <collision>
        <geometry>
          <mesh filename="${meshes_folder}/neck.stl" scale="0.1 0.1 0.1"/>
        </geometry>
        <origin rpy="0 0 0" xyz="0 0 0"/>
      </collision>
    </link>    
    
    <link name="head">
      <inertial>
        <mass value="0.60533"/>
        <inertia ixx="0.000957766" 
                 ixy="8.78814e-06" 
                 ixz="5.33702e-06" 
                 iyy="0.000816836" 
                 iyz="-2.99579e-05" 
                 izz="0.000984976"/>
        <origin rpy="0 0 0" xyz="-0.00112 0 0.05258"/>
      </inertial>
      <visual>
        <geometry>
          <mesh filename="${meshes_folder}/head.dae" scale="0.1 0.1 0.1"/>
        </geometry>
        <origin rpy="0 0 0" xyz="0 0 0"/>
      </visual>
      <collision>
        <geometry>
          <mesh filename="${meshes_folder}/head.stl" scale="0.1 0.1 0.1"/>
        </geometry>
        <origin rpy="0 0 0" xyz="0 0 0"/>
      </collision>
    </link>

    <link name="gaze"/>  

    <gazebo reference="neck">
      <mu1>0.5</mu1>
      <mu2>0.5</mu2>
      <selfCollide>false</selfCollide>
      <turnGravityOff>false</turnGravityOff>
    </gazebo>
    
    <gazebo reference="head">
      <mu1>0.5</mu1>
      <mu2>0.5</mu2>
      <selfCollide>false</selfCollide>
      <turnGravityOff>false</turnGravityOff>
    </gazebo> 

  </xacro:macro>

</robot>