<?xml version="1.0" ?>
<robot xmlns:xacro="http://ros.org/wiki/xacro">

  <xacro:include filename="$(find tripebot_description)/urdf/materials.xacro"/>

  <xacro:property name="meshes_folder" value="package://tripebot_description/meshes/nao"/>

  <xacro:macro name="leg_links" params="side">

    <xacro:property name="reflect"/>
    <xacro:if value="${side == 'left'}"> <xacro:property name="reflect" value="1"/> </xacro:if>
    <xacro:if value="${side == 'right'}"> <xacro:property name="reflect" value="-1"/> </xacro:if>

    <xacro:property name="side_initial"/>
    <xacro:if value="${side == 'left'}"> <xacro:property name="side_initial" value="L"/> </xacro:if>
    <xacro:if value="${side == 'right'}"> <xacro:property name="side_initial" value="R"/> </xacro:if>

    <link name="${side}_hip_yaw_pitch_link">        
      <inertial>
        <mass value="0.06981"/>
        <inertia ixx="2.3407e-05" 
                 ixy="${reflect*1.07922e-06}" 
                 ixz="-1.76003e-06" 
                 iyy="4.76355e-05" 
                 iyz="${reflect*2.76058e-06}" 
                 izz="4.97021e-05"/>
        <origin rpy="0 0 0" xyz="-0.00781 ${reflect*0.01114} 0.02661"/>
      </inertial>
      <visual>
        <geometry>
          <mesh filename="${meshes_folder}/${side_initial}HipYawPitch.dae" scale="0.1 0.1 0.1"/>
        </geometry>
        <origin rpy="0 0 0" xyz="0 0 0"/>
      </visual>
      <collision>
        <geometry>
          <mesh filename="${meshes_folder}/${side_initial}HipYawPitch_0.10.stl" scale="0.1 0.1 0.1"/>
        </geometry>
        <origin rpy="0 0 0" xyz="0 0 0"/>
      </collision>
    </link>      

    <link name="${side}_hip_roll_link">
      <inertial>
        <mass value="0.14053"/>
        <inertia ixx="2.38445e-05" 
                 ixy="${reflect*-6.53605e-07}" 
                 ixz="7.12893e-06" 
                 iyy="6.08246e-05" 
                 iyz="${reflect*-2.14072e-07}" 
                 izz="5.43691e-05"/>
        <origin rpy="0 0 0" xyz="-0.01549 ${reflect*0.00029} -0.00515"/>
      </inertial>
      <visual>
        <geometry>
          <mesh filename="${meshes_folder}/${side_initial}HipRoll.dae" scale="0.1 0.1 0.1"/>
        </geometry>
        <origin rpy="0 0 0" xyz="0 0 0"/>
      </visual>
      <collision>
        <geometry>
          <mesh filename="${meshes_folder}/${side_initial}HipRoll_0.10.stl" scale="0.1 0.1 0.1"/>
        </geometry>
        <origin rpy="0 0 0" xyz="0 0 0"/>
      </collision>
    </link>
    
    <link name="${side}_hip_pitch_link">
      <inertial>
        <mass value="0.38968"/>
        <inertia ixx="0.000509844" 
                 ixy="${reflect*2.11296e-06}" 
                 ixz="5.64129e-05" 
                 iyy="0.000465358" 
                 iyz="${reflect*-7.91029e-06}" 
                 izz="0.000301098"/>
        <origin rpy="0 0 0" xyz="0.00138 ${reflect*0.00221} -0.05373"/>
      </inertial>
      <visual>
        <geometry>
          <mesh filename="${meshes_folder}/${side_initial}HipPitch.dae" scale="0.1 0.1 0.1"/>
        </geometry>
        <origin rpy="0 0 0" xyz="0 0 0"/>
      </visual>
      <collision>
        <geometry>
          <mesh filename="${meshes_folder}/${side_initial}HipPitch_0.10.stl" scale="0.1 0.1 0.1"/>
        </geometry>
        <origin rpy="0 0 0" xyz="0 0 0"/>
      </collision>
    </link>
    
    <link name="${side}_knee_pitch_link">
      <inertial>
        <mass value="0.30142"/>
        <inertia ixx="0.000446171" 
                 ixy="${reflect*3.70584e-06}" 
                 ixz="-3.09008e-05" 
                 iyy="0.000388084" 
                 iyz="${reflect*6.01953e-06}" 
                 izz="0.000185516"/>
        <origin rpy="0 0 0" xyz="0.00453 ${reflect*0.00225} -0.04936"/>
      </inertial>
      <visual>
        <geometry>
          <mesh filename="${meshes_folder}/${side_initial}KneePitch.dae" scale="0.1 0.1 0.1"/>
        </geometry>
        <origin rpy="0 0 0" xyz="0 0 0"/>
      </visual>
      <collision>
        <geometry>
          <mesh filename="${meshes_folder}/${side_initial}KneePitch_0.10.stl" scale="0.1 0.1 0.1"/>
        </geometry>
        <origin rpy="0 0 0" xyz="0 0 0"/>
      </collision>
    </link>
    
    <link name="${side}_ankle_pitch_link">
      <inertial>
        <mass value="0.13416"/>
        <inertia ixx="3.22034e-05" 
                 ixy="${reflect*-8.83212e-09}"
                 ixz="4.27549e-06" 
                 iyy="6.7943e-05" 
                 iyz="${reflect*2.84849e-07}"
                 izz="5.48269e-05"/>
        <origin rpy="0 0 0" xyz="0.00045 ${reflect*0.00029} 0.00685"/>
      </inertial>
      <visual>
        <geometry>
          <mesh filename="${meshes_folder}/${side_initial}AnklePitch.dae" scale="0.1 0.1 0.1"/>
        </geometry>
        <origin rpy="0 0 0" xyz="0 0 0"/>
      </visual>
      <collision>
        <geometry>
          <mesh filename="${meshes_folder}/${side_initial}AnklePitch_0.10.stl" scale="0.1 0.1 0.1"/>
        </geometry>
        <origin rpy="0 0 0" xyz="0 0 0"/>
      </collision>
    </link>   
    

    <gazebo reference="${side}_hip_yaw_pitch_link">
      <mu1>0.5</mu1>
      <mu2>0.5</mu2>
      <selfCollide>false</selfCollide>
      <turnGravityOff>false</turnGravityOff>
    </gazebo>
    <gazebo reference="${side}_hip_roll_link">
      <mu1>0.5</mu1>
      <mu2>0.5</mu2>
      <selfCollide>false</selfCollide>
      <turnGravityOff>false</turnGravityOff>
    </gazebo>
    <gazebo reference="${side}_hip_pitch_link">
      <mu1>0.5</mu1>
      <mu2>0.5</mu2>
      <selfCollide>false</selfCollide>
      <turnGravityOff>false</turnGravityOff>
    </gazebo>
    <gazebo reference="${side}_knee_pitch_link">
      <mu1>0.5</mu1>
      <mu2>0.5</mu2>
      <selfCollide>false</selfCollide>
      <turnGravityOff>false</turnGravityOff>
    </gazebo>
    <gazebo reference="${side}_ankle_pitch_link">
      <mu1>0.5</mu1>
      <mu2>0.5</mu2>
      <selfCollide>false</selfCollide>
      <turnGravityOff>false</turnGravityOff>
    </gazebo>

  </xacro:macro>

</robot>