<?xml version="1.0"?>
<robot xmlns:xacro="http://ros.org/wiki/xacro">
  
  <xacro:include filename="$(find tripebot_description)/urdf/nao/groups/head.xacro"/>
  <xacro:include filename="$(find tripebot_description)/urdf/nao/groups/torso.xacro"/>
  <xacro:include filename="$(find tripebot_description)/urdf/nao/groups/arm.xacro"/>  

  <xacro:macro name="upper_robot">

    <xacro:property name="head_transmission_type" default="PositionJointInterface"/>
    <xacro:property name="arm_transmission_type" default="PositionJointInterface"/>

    <!-- Head -->
    <xacro:head parent_link="torso_link" transmission_type="${head_transmission_type}"/>

    <!-- Torso -->
    <xacro:torso/>

    <!-- Two Arms -->
    <xacro:arm side="left" parent_link="torso_link" transmission_type="${arm_transmission_type}"/>
    <xacro:arm side="right" parent_link="torso_link" transmission_type="${arm_transmission_type}"/>

    <!-- World fixing link TEMP -->
    <!-- <link name="world"/>
    <joint name="world_fixed_joint" type="fixed">
      <parent link="world"/>
      <child link="base_link"/>
      <origin rpy="0 0 0" xyz="0 0 0.5"/>
      <axis xyz="0 0 0"/>
    </joint> -->
    
  </xacro:macro>
  
</robot>