<?xml version="1.0" ?><COLLADA version="1.4.1" xmlns="http://www.collada.org/2005/11/COLLADASchema">
  <asset>
    <contributor>
      <author>Blender User</author>
      <authoring_tool>Blender 2.71.0 commit date:2014-06-25, commit time:18:36, hash:9337574</authoring_tool>
    </contributor>
    <created>2014-08-18T14:36:55</created>
    <modified>2014-08-18T14:36:55</modified>
    <unit meter="1" name="meter"/>
    <up_axis>Z_UP</up_axis>
  </asset>
  <library_images>
    <image id="textureNAO_png_002" name="textureNAO_png_002">
      <init_from>texture/textureNAO.png</init_from>
    </image>
  </library_images>
  <library_effects>
    <effect id="NaoMat_Structure-effect">
      <profile_COMMON>
        <technique sid="common">
          <phong>
            <emission>
              <color sid="emission">0 0 0 1</color>
            </emission>
            <ambient>
              <color sid="ambient">0 0 0 1</color>
            </ambient>
            <diffuse>
              <color sid="diffuse">0.4 0.4 0.4 1</color>
            </diffuse>
            <specular>
              <color sid="specular">0.25 0.25 0.25 1</color>
            </specular>
            <shininess>
              <float sid="shininess">9</float>
            </shininess>
            <index_of_refraction>
              <float sid="index_of_refraction">1</float>
            </index_of_refraction>
          </phong>
        </technique>
        <extra>
          <technique profile="GOOGLEEARTH">
            <double_sided>1</double_sided>
          </technique>
        </extra>
      </profile_COMMON>
      <extra><technique profile="MAX3D"><double_sided>1</double_sided></technique></extra>
    </effect>
    <effect id="RanklePitchUV-effect">
      <profile_COMMON>
        <newparam sid="textureNAO_png_002-surface">
          <surface type="2D">
            <init_from>textureNAO_png_002</init_from>
          </surface>
        </newparam>
        <newparam sid="textureNAO_png_002-sampler">
          <sampler2D>
            <source>textureNAO_png_002-surface</source>
          </sampler2D>
        </newparam>
        <technique sid="common">
          <phong>
            <emission>
              <color sid="emission">0 0 0 1</color>
            </emission>
            <ambient>
              <color sid="ambient">0 0 0 1</color>
            </ambient>
            <diffuse>
              <texture texcoord="UVTex" texture="textureNAO_png_002-sampler"/>
            </diffuse>
            <specular>
              <color sid="specular">0.5 0.5 0.5 1</color>
            </specular>
            <shininess>
              <float sid="shininess">50</float>
            </shininess>
            <index_of_refraction>
              <float sid="index_of_refraction">1</float>
            </index_of_refraction>
          </phong>
        </technique>
        <extra>
          <technique profile="GOOGLEEARTH">
            <double_sided>1</double_sided>
          </technique>
        </extra>
      </profile_COMMON>
      <extra><technique profile="MAX3D"><double_sided>1</double_sided></technique></extra>
    </effect>
  </library_effects>
  <library_materials>
    <material id="NaoMat_Structure-material" name="NaoMat_Structure">
      <instance_effect url="#NaoMat_Structure-effect"/>
    </material>
    <material id="RanklePitchUV-material" name="RanklePitchUV">
      <instance_effect url="#RanklePitchUV-effect"/>
    </material>
  </library_materials>
  <library_geometries>
    <geometry id="LAnkle-mesh" name="LAnkle">
      <mesh>
        <source id="LAnkle-mesh-positions">
          <float_array count="384" id="LAnkle-mesh-positions-array">41.28249 11.75798 14.50244 41.28249 11.75798 19.20242 41.28249 -12.34202 19.20242 41.28249 -12.34202 14.50244 22.29055 11.75798 39.45892 22.29054 -12.34202 39.45892 32.32632 -12.34202 31.94626 32.32632 11.75798 31.94626 10.54472 11.75798 43.8399 10.54472 -12.34201 43.8399 -1.959566 11.75799 44.73422 -1.959568 -12.34201 44.73422 -14.20931 11.75799 42.06946 -14.20931 -12.34201 42.06946 -25.21209 11.75799 36.06146 -25.21209 -12.34201 36.06146 -34.07654 11.75799 27.19702 -34.07654 -12.34201 27.19702 -40.08451 11.75799 16.19425 -40.08452 -12.34201 16.19425 -42.84928 11.75799 8.32779 -42.84928 -12.34201 8.32779 37.73903 -12.34202 25.61044 37.73903 11.75798 25.61044 38.79655 14.41676 14.59326 38.79655 14.41676 18.99246 30.41357 14.41677 30.92069 21.02008 14.41677 37.95254 10.02599 14.41677 42.05313 -1.678025 14.41677 42.89023 -13.14379 14.41677 40.39599 -23.44239 14.41677 34.77252 -31.73952 14.41677 26.4754 -37.36298 14.41677 16.17679 -39.9572 14.41677 8.327759 35.34547 14.41676 25.22714 -31.11751 6.622276 -15.80374 -31.11751 12.10244 -12.14203 29.3825 12.10243 -12.14203 29.3825 6.622272 -15.80374 -31.11751 0.1579895 -17.08957 29.3825 0.1579818 -17.08957 -31.11751 -6.306301 -15.80374 29.38249 -6.306305 -15.80374 -31.11751 -11.78646 -12.14203 29.38249 -11.78646 -12.14203 -31.11751 14.39313 -9.401947 29.3825 14.39313 -9.401947 -31.11751 -14.07716 -9.401947 29.38249 -14.07716 -9.401947 29.3825 12.10243 -12.14203 29.3825 14.39313 -9.401947 29.38249 -14.07716 -9.401947 29.38249 -11.78646 -12.14203 29.38249 -6.306305 -15.80374 29.3825 6.622272 -15.80374 29.3825 0.1579818 -17.08957 -31.11751 12.10244 -12.14203 -31.11751 -11.78646 -12.14203 -31.11751 -14.07716 -9.401947 -31.11751 14.39313 -9.401947 -31.11751 6.622276 -15.80374 -31.11751 -6.306301 -15.80374 -31.11751 0.1579895 -17.08957 38.79654 -14.1008 18.99246 38.79654 -14.1008 14.59326 30.41357 -14.1008 30.92069 35.34547 -14.1008 25.22714 21.02008 -14.1008 37.95257 10.02599 -14.1008 42.05313 -1.678027 -14.1008 42.89023 -13.14379 -14.1008 40.39599 -23.44239 -14.1008 34.77255 -31.73953 -14.1008 26.4754 -37.36298 -14.1008 16.17679 -39.9572 -14.1008 8.32779 21.02008 14.41677 37.95254 -13.14379 14.41677 40.39599 -1.678025 14.41677 42.89023 10.02599 14.41677 42.05313 30.41357 14.41677 30.92069 -23.44239 14.41677 34.77252 35.34547 14.41676 25.22714 -31.73952 14.41677 26.4754 -31.11751 14.41677 8.598053 29.38249 14.41676 8.598053 29.38249 -14.1008 8.598053 -31.11751 -14.1008 8.598053 29.38249 14.41676 8.598053 29.38249 -14.1008 8.598053 -31.11751 -14.1008 8.598053 -31.11751 14.41677 8.598053 -42.84928 11.75799 8.32779 -39.9572 14.41677 8.327759 -39.9572 -14.1008 8.32779 -42.84928 -12.34201 8.32779 41.28249 11.75798 14.50244 41.28249 -12.34202 14.50244 38.79654 -14.1008 14.59326 38.79655 14.41676 14.59326 -31.11751 14.41677 15.59805 29.38249 14.41676 15.59805 29.38249 -14.1008 15.59805 -31.11751 -14.1008 15.59805 29.38249 14.41676 15.59805 29.38249 -14.1008 15.59805 -39.9572 14.41677 8.327759 -31.11751 14.41677 8.598053 -31.11751 -14.1008 8.598053 -39.9572 -14.1008 8.32779 -37.36298 14.41677 16.17679 -39.9572 14.41677 8.327759 -39.9572 -14.1008 8.32779 -37.36298 -14.1008 16.17679 29.38249 -14.1008 15.59805 29.38249 14.41676 15.59805 38.79655 14.41676 14.59326 38.79655 14.41676 18.99246 35.34547 -14.1008 25.22714 38.79654 -14.1008 14.59326 38.79654 -14.1008 18.99246 -31.73953 -14.1008 26.4754 30.41357 -14.1008 30.92069 -23.44239 -14.1008 34.77255 21.02008 -14.1008 37.95257 -13.14379 -14.1008 40.39599 10.02599 -14.1008 42.05313 -1.678027 -14.1008 42.89023</float_array>
          <technique_common>
            <accessor count="128" source="#LAnkle-mesh-positions-array" stride="3">
              <param name="X" type="float"/>
              <param name="Y" type="float"/>
              <param name="Z" type="float"/>
            </accessor>
          </technique_common>
        </source>
        <source id="LAnkle-mesh-normals">
          <float_array count="384" id="LAnkle-mesh-normals-array">0.9313029 0.3641468 0 0.9095737 0.3469039 0.2286446 0.8752403 -0.4307077 0.2200384 0.4605854 0.3014313 0.8348338 0.4447767 -0.391705 0.805414 0.6285287 -0.4069643 0.6627705 0.197821 -0.3827021 0.9024323 -0.06762897 -0.3830989 0.9212012 0.2045961 0.292581 0.93408 -0.3371379 0.3024995 0.8915067 -0.325663 -0.3927732 0.8600116 -0.5729545 0.3194372 0.7547532 -0.5519273 -0.4094363 0.7264321 -0.7272561 -0.4297311 0.5351726 -0.8525345 0.3673513 0.3716239 -0.8155767 -0.4563127 0.3557848 -0.8547319 -0.4252144 0.2976165 0.6525163 0.315714 0.6888333 0.7480697 -0.4244209 0.5101169 0.7786493 0.3333842 0.5315104 0.73043 0.6829432 0 0.7077853 0.6777245 0.1992248 0.5336772 0.6073794 0.5883969 0.3797418 0.5866878 0.7152318 0.1712088 0.5723136 0.8019349 -0.05478072 0.5729545 0.8177435 -0.06979578 0.2929472 0.9535508 -0.2732017 0.5884274 0.7609485 -0.4601886 0.6161687 0.6391491 -0.5967285 0.6516007 0.468276 -0.7570117 0.3409222 0.557329 -0.6604511 0.6866055 0.3038117 -0.6691794 0.7071749 0.2281869 0.6259346 0.6336253 0.4546037 0 0.3826716 -0.9238563 0 0.6681722 -0.7439802 0 0.6681722 -0.7439802 0 0 -1 0 0.3826716 -0.9238563 0 -0.3826716 -0.9238563 0 0 -1 0 -0.6681722 -0.7439802 0 -0.3826716 -0.9238563 0 0.9397565 -0.3417768 0 0.9397565 -0.3417768 0 -0.9397565 -0.3417768 0 -0.6681722 -0.7439802 1 0 0 0.9999695 0 0 1 0 0 1 0 0 1 0 0 1 0 0 1 0 0 -1 0 0 -1 0 0 -1 0 0 -1 0 0 -1 0 0 -1 0 0 -1 0 0 0.8903775 -0.4551531 0 0.5607776 -0.8121281 0.1610156 0.4380322 -0.7558825 0.4865566 0.5073092 -0.7773064 0.3719596 0.3143407 -0.7382122 0.5967895 0.1428571 -0.7257607 0.6729027 -0.04501479 -0.72631 0.685873 -0.2251961 -0.7397382 0.6340526 -0.375103 -0.7630848 0.5262306 -0.4785913 -0.7917112 0.3796197 -0.5211036 -0.8184759 0.2418591 -0.5220801 -0.8340709 0.1780145 0 1 0 0 0.9999695 0 0 1 0 0 1 0 0 0.9999695 0 0 1 0 0 1 0 0 0.9999695 -4.27259e-4 0 -0.9397565 -0.3417768 0 -0.9999695 -6.40889e-4 1 0 0 0.9999695 0 0 -1 0 0 0 0 -1 0 0 -1 0 0 -1 -0.03650009 0 -0.9993286 -0.03650009 0 -0.9993286 -0.07983642 0 -0.9967955 0 0.9999695 -6.40889e-4 0 1 0 0 -0.9999695 -4.27259e-4 0 -1 0 1 0 0 0.03051847 0 -0.9995117 0.03051847 0 -0.9995117 0.03051847 0 -0.9995117 0 1 0 0 -1 0 0 -1 0 0 1 0 -0.1061128 0 -0.9943236 -0.1061128 0 -0.9943236 0 1 0 0 -0.9999695 0 0 -1 0 0 -0.9999695 0 0 -1 0 0 -0.9999695 0 0 -1 0 0 -1 0 0 -1 0 0 -1 0 -0.8848537 0.3498947 0.3075045 0.5775323 -0.8163396 0 0 0.9999695 0 -1 0 0 0 0 -1 -0.08359014 0 -0.9964904 1 0 0 0.03051847 0 -0.9995117 0 1 0 0 -1 0 0 0.9999695 0 0 -1 0</float_array>
          <technique_common>
            <accessor count="128" source="#LAnkle-mesh-normals-array" stride="3">
              <param name="X" type="float"/>
              <param name="Y" type="float"/>
              <param name="Z" type="float"/>
            </accessor>
          </technique_common>
        </source>
        <source id="LAnkle-mesh-map-0">
          <float_array count="816" id="LAnkle-mesh-map-0-array">0.1394719 0.8926757 0.1358371 0.8922607 0.1356782 0.874287 0.1139353 0.8928409 0.1138237 0.8745287 0.1234936 0.8742457 0.1043031 0.8746903 0.1138237 0.8745287 0.1139353 0.8928409 0.09478181 0.8747711 0.1043031 0.8746903 0.104284 0.8929846 0.08488363 0.8931401 0.08512294 0.8747661 0.09478181 0.8747711 0.07507759 0.8931341 0.07542222 0.8747271 0.08512294 0.8747661 0.06568026 0.8746051 0.07542222 0.8747271 0.07507759 0.8931341 0.05535203 0.8932997 0.0557447 0.8741571 0.06568026 0.8746051 0.04888725 0.8737033 0.0557447 0.8741571 0.05535203 0.8932997 0.1237424 0.8927165 0.1234936 0.8742457 0.1299808 0.874177 0.1358371 0.8922607 0.1302458 0.8925342 0.1299808 0.874177 0.1394719 0.8926757 0.1389922 0.8956208 0.1354206 0.8951302 0.1232261 0.8954432 0.1136428 0.895468 0.1139353 0.8928409 0.1136428 0.895468 0.1042103 0.895509 0.104284 0.8929846 0.104284 0.8929846 0.1042103 0.895509 0.0947926 0.8956634 0.09464281 0.8930777 0.0947926 0.8956634 0.08523386 0.8957877 0.08488363 0.8931401 0.08523386 0.8957877 0.07560706 0.895865 0.07507759 0.8931341 0.07560706 0.895865 0.06595647 0.8959507 0.06525158 0.893118 0.06595647 0.8959507 0.05633431 0.8962466 0.05535203 0.8932997 0.05633431 0.8962466 0.04950642 0.8966498 0.1294918 0.8953408 0.1232261 0.8954432 0.1237424 0.8927165 0.1354206 0.8951302 0.1294918 0.8953408 0.1302458 0.8925342 0.05548739 0.81202 0.05548739 0.8068837 0.1026341 0.8068844 0.05548733 0.8171562 0.05548739 0.81202 0.102634 0.8120205 0.05548733 0.8222925 0.05548733 0.8171562 0.1026339 0.8171567 0.05548733 0.8274286 0.05548733 0.8222925 0.1026338 0.8222929 0.05548739 0.8068837 0.05548739 0.8041005 0.1026343 0.8041012 0.05548739 0.8302118 0.05548733 0.8274286 0.1026338 0.8274291 0.1304399 0.7672088 0.1322243 0.7693448 0.1100379 0.7693371 0.1304399 0.7672088 0.1118237 0.7672024 0.1160953 0.7643504 0.1261703 0.7643539 0.1160953 0.7643504 0.1211332 0.7633501 0.1118162 0.8050308 0.1100311 0.8028956 0.1322175 0.8028956 0.1304325 0.8050308 0.1261619 0.8078843 0.1160869 0.8078843 0.1261619 0.8078843 0.1211243 0.8088864 0.1160869 0.8078843 0.1394719 0.8737205 0.1356782 0.874287 0.1351795 0.8718278 0.1234936 0.8742457 0.1228737 0.8720937 0.1291052 0.8718965 0.1299808 0.874177 0.1291052 0.8718965 0.1351795 0.8718278 0.1138237 0.8745287 0.1134527 0.8724803 0.1228737 0.8720937 0.1043031 0.8746903 0.1041752 0.8727335 0.1134527 0.8724803 0.1043031 0.8746903 0.09478181 0.8747711 0.09489852 0.8727523 0.09478181 0.8747711 0.08512294 0.8747661 0.08546662 0.8726825 0.08512294 0.8747661 0.07542222 0.8747271 0.07597094 0.8725497 0.07542222 0.8747271 0.06568026 0.8746051 0.06643092 0.8722966 0.06568026 0.8746051 0.0557447 0.8741571 0.05680626 0.871701 0.0557447 0.8741571 0.04888725 0.8737033 0.04990297 0.8710036 0.09611827 0.7671983 0.06949472 0.7652936 0.07842999 0.7633501 0.09611827 0.7671983 0.1034384 0.7726783 0.06146901 0.7696759 0.1072818 0.7771154 0.05500304 0.7761415 0.06146901 0.7696759 0.1026343 0.8041012 0.05548739 0.8041005 0.05548751 0.7900733 0.05548739 0.8302118 0.1026337 0.8302122 0.1026335 0.8442391 0.1322379 0.7833718 0.1100146 0.7833642 0.1100379 0.7693371 0.1322175 0.8028956 0.1100311 0.8028956 0.1100127 0.7888684 0.130164 0.8252196 0.132236 0.8274734 0.1100127 0.8274734 0.130164 0.8182445 0.1113833 0.8182445 0.1100127 0.8163059 0.1026345 0.7900741 0.05548751 0.7900733 0.05548763 0.7846182 0.05548733 0.8442388 0.1026335 0.8442391 0.1026335 0.849694 0.1100146 0.7833642 0.1322379 0.7833718 0.132236 0.7888268 0.132236 0.8182861 0.132236 0.825178 0.1100127 0.825178 0.05062055 0.7841671 0.05548763 0.7846182 0.05548751 0.7900733 0.05548733 0.8442388 0.05548727 0.8496938 0.05062031 0.8501448 0.05500304 0.7761415 0.05548763 0.7846182 0.05062055 0.7841671 0.05500304 0.7761415 0.1072818 0.7771154 0.1026347 0.7846191 0.1100127 0.8163059 0.1100127 0.808928 0.132236 0.808928 0.1026347 0.7846191 0.1072818 0.7771154 0.1099711 0.781974 0.1026335 0.849694 0.1099696 0.848911 0.1099696 0.8523392 0.05062031 0.8501448 0.05548727 0.8496938 0.05500257 0.8581703 0.05500257 0.8581703 0.05548727 0.8496938 0.1026335 0.849694 0.1072803 0.8571977 0.103437 0.8616345 0.0614683 0.8646361 0.0614683 0.8646361 0.103437 0.8616345 0.09611678 0.8671143 0.09611678 0.8671143 0.08754932 0.8703097 0.07842874 0.870962 0.1394719 0.8737205 0.1394719 0.8926757 0.1356782 0.874287 0.1237424 0.8927165 0.1139353 0.8928409 0.1234936 0.8742457 0.104284 0.8929846 0.1043031 0.8746903 0.1139353 0.8928409 0.09464281 0.8930777 0.09478181 0.8747711 0.104284 0.8929846 0.09464281 0.8930777 0.08488363 0.8931401 0.09478181 0.8747711 0.08488363 0.8931401 0.07507759 0.8931341 0.08512294 0.8747661 0.06525158 0.893118 0.06568026 0.8746051 0.07507759 0.8931341 0.06525158 0.893118 0.05535203 0.8932997 0.06568026 0.8746051 0.0485987 0.8934958 0.04888725 0.8737033 0.05535203 0.8932997 0.1302458 0.8925342 0.1237424 0.8927165 0.1299808 0.874177 0.1356782 0.874287 0.1358371 0.8922607 0.1299808 0.874177 0.1358371 0.8922607 0.1394719 0.8926757 0.1354206 0.8951302 0.1237424 0.8927165 0.1232261 0.8954432 0.1139353 0.8928409 0.1139353 0.8928409 0.1136428 0.895468 0.104284 0.8929846 0.09464281 0.8930777 0.104284 0.8929846 0.0947926 0.8956634 0.08488363 0.8931401 0.09464281 0.8930777 0.08523386 0.8957877 0.07507759 0.8931341 0.08488363 0.8931401 0.07560706 0.895865 0.06525158 0.893118 0.07507759 0.8931341 0.06595647 0.8959507 0.05535203 0.8932997 0.06525158 0.893118 0.05633431 0.8962466 0.0485987 0.8934958 0.05535203 0.8932997 0.04950642 0.8966498 0.1302458 0.8925342 0.1294918 0.8953408 0.1237424 0.8927165 0.1358371 0.8922607 0.1354206 0.8951302 0.1302458 0.8925342 0.102634 0.8120205 0.05548739 0.81202 0.1026341 0.8068844 0.1026339 0.8171567 0.05548733 0.8171562 0.102634 0.8120205 0.1026338 0.8222929 0.05548733 0.8222925 0.1026339 0.8171567 0.1026338 0.8274291 0.05548733 0.8274286 0.1026338 0.8222929 0.1026341 0.8068844 0.05548739 0.8068837 0.1026343 0.8041012 0.1026337 0.8302122 0.05548739 0.8302118 0.1026338 0.8274291 0.1118237 0.7672024 0.1304399 0.7672088 0.1100379 0.7693371 0.1261703 0.7643539 0.1304399 0.7672088 0.1160953 0.7643504 0.1304325 0.8050308 0.1118162 0.8050308 0.1322175 0.8028956 0.1118162 0.8050308 0.1304325 0.8050308 0.1160869 0.8078843 0.1389216 0.8711443 0.1394719 0.8737205 0.1351795 0.8718278 0.1299808 0.874177 0.1234936 0.8742457 0.1291052 0.8718965 0.1356782 0.874287 0.1299808 0.874177 0.1351795 0.8718278 0.1234936 0.8742457 0.1138237 0.8745287 0.1228737 0.8720937 0.1138237 0.8745287 0.1043031 0.8746903 0.1134527 0.8724803 0.1041752 0.8727335 0.1043031 0.8746903 0.09489852 0.8727523 0.09489852 0.8727523 0.09478181 0.8747711 0.08546662 0.8726825 0.08546662 0.8726825 0.08512294 0.8747661 0.07597094 0.8725497 0.07597094 0.8725497 0.07542222 0.8747271 0.06643092 0.8722966 0.06643092 0.8722966 0.06568026 0.8746051 0.05680626 0.871701 0.05680626 0.871701 0.0557447 0.8741571 0.04990297 0.8710036 0.08755081 0.7640026 0.09611827 0.7671983 0.07842999 0.7633501 0.06949472 0.7652936 0.09611827 0.7671983 0.06146901 0.7696759 0.1034384 0.7726783 0.1072818 0.7771154 0.06146901 0.7696759 0.1026345 0.7900741 0.1026343 0.8041012 0.05548751 0.7900733 0.05548733 0.8442388 0.05548739 0.8302118 0.1026335 0.8442391 0.1322243 0.7693448 0.1322379 0.7833718 0.1100379 0.7693371 0.132236 0.7888684 0.1322175 0.8028956 0.1100127 0.7888684 0.1113833 0.8252196 0.130164 0.8252196 0.1100127 0.8274734 0.132236 0.8163059 0.130164 0.8182445 0.1100127 0.8163059 0.1026347 0.7846191 0.1026345 0.7900741 0.05548763 0.7846182 0.05548727 0.8496938 0.05548733 0.8442388 0.1026335 0.849694 0.1100127 0.7888191 0.1100146 0.7833642 0.132236 0.7888268 0.1100127 0.8182861 0.132236 0.8182861 0.1100127 0.825178 0.0485987 0.7902837 0.05062055 0.7841671 0.05548751 0.7900733 0.0485987 0.8440282 0.05548733 0.8442388 0.05062031 0.8501448 0.05548763 0.7846182 0.05500304 0.7761415 0.1026347 0.7846191 0.132236 0.8163059 0.1100127 0.8163059 0.132236 0.808928 0.109971 0.7854023 0.1026347 0.7846191 0.1099711 0.781974 0.1072803 0.8571977 0.1026335 0.849694 0.1099696 0.8523392 0.1072803 0.8571977 0.05500257 0.8581703 0.1026335 0.849694 0.05500257 0.8581703 0.1072803 0.8571977 0.0614683 0.8646361 0.06949377 0.8690183 0.0614683 0.8646361 0.09611678 0.8671143 0.06949377 0.8690183 0.09611678 0.8671143 0.07842874 0.870962</float_array>
          <technique_common>
            <accessor count="408" source="#LAnkle-mesh-map-0-array" stride="2">
              <param name="S" type="float"/>
              <param name="T" type="float"/>
            </accessor>
          </technique_common>
        </source>
        <vertices id="LAnkle-mesh-vertices">
          <input semantic="POSITION" source="#LAnkle-mesh-positions"/>
        </vertices>
        <polylist count="136" material="RanklePitchUV-material">
          <input offset="0" semantic="VERTEX" source="#LAnkle-mesh-vertices"/>
          <input offset="1" semantic="NORMAL" source="#LAnkle-mesh-normals"/>
          <input offset="2" semantic="TEXCOORD" set="0" source="#LAnkle-mesh-map-0"/>
          <vcount>3 3 3 3 3 3 3 3 3 3 3 3 3 3 3 3 3 3 3 3 3 3 3 3 3 3 3 3 3 3 3 3 3 3 3 3 3 3 3 3 3 3 3 3 3 3 3 3 3 3 3 3 3 3 3 3 3 3 3 3 3 3 3 3 3 3 3 3 3 3 3 3 3 3 3 3 3 3 3 3 3 3 3 3 3 3 3 3 3 3 3 3 3 3 3 3 3 3 3 3 3 3 3 3 3 3 3 3 3 3 3 3 3 3 3 3 3 3 3 3 3 3 3 3 3 3 3 3 3 3 3 3 3 3 3 3 </vcount>
          <p>0 0 0 1 1 1 2 2 2 4 3 3 5 4 4 6 5 5 9 6 6 5 4 7 4 3 8 11 7 9 9 6 10 8 8 11 12 9 12 13 10 13 11 7 14 14 11 15 15 12 16 13 10 17 17 13 18 15 12 19 14 11 20 18 14 21 19 15 22 17 13 23 21 16 24 19 15 25 18 14 26 7 17 27 6 5 28 22 18 29 1 1 30 23 19 31 22 18 32 0 0 33 24 20 34 25 21 35 26 22 36 27 23 37 4 3 38 27 23 39 28 24 40 8 8 41 8 8 42 28 24 43 29 25 44 10 26 45 29 25 46 30 27 47 12 9 48 30 27 49 31 28 50 14 11 51 31 28 52 32 29 53 16 30 54 32 29 55 33 31 56 18 14 57 33 31 58 34 32 59 35 33 60 26 22 61 7 17 62 25 21 63 35 33 64 23 19 65 36 34 66 37 35 67 38 36 68 40 37 69 36 34 70 39 38 71 42 39 72 40 37 73 41 40 74 44 41 75 42 39 76 43 42 77 37 35 78 46 43 79 47 44 80 48 45 81 44 41 82 45 46 83 50 47 84 51 48 85 52 49 86 50 47 87 53 50 88 54 51 89 55 52 90 54 51 91 56 53 92 58 54 93 59 55 94 60 56 95 57 57 96 61 58 97 62 59 98 61 58 99 63 60 100 62 59 101 3 61 102 2 2 103 64 62 104 6 5 105 66 63 106 67 64 107 22 18 108 67 64 109 64 62 110 5 4 111 68 65 112 66 63 113 9 6 114 69 66 115 68 65 116 9 6 117 11 7 118 70 67 119 11 7 120 13 10 121 71 68 122 13 10 123 15 12 124 72 69 125 15 12 126 17 13 127 73 70 128 17 13 129 19 15 130 74 71 131 19 15 132 21 16 133 75 72 134 76 73 135 77 74 136 78 75 137 76 73 138 80 76 139 81 77 140 82 78 141 83 79 142 81 77 143 47 44 144 46 43 145 84 80 146 48 45 147 49 81 148 86 82 149 88 83 150 89 84 151 52 49 152 60 56 153 59 55 154 90 85 155 92 86 156 93 87 157 94 88 158 96 89 159 97 90 160 98 91 161 85 92 162 84 80 163 100 93 164 87 94 165 86 82 166 102 95 167 89 84 168 88 83 169 104 96 170 106 97 171 107 98 172 108 99 173 110 100 174 100 93 175 84 80 176 87 94 177 103 101 178 113 102 179 83 79 180 100 93 181 110 100 182 83 79 183 82 78 184 101 103 185 98 91 186 114 104 187 115 105 188 101 103 189 82 78 190 117 106 191 102 95 192 119 107 193 120 108 194 113 102 195 103 101 196 121 109 197 121 109 198 103 101 199 102 95 200 118 110 201 122 111 202 123 112 203 123 112 204 122 111 205 124 113 206 124 113 207 126 114 208 127 115 209 3 61 210 0 0 211 2 2 212 7 17 213 4 3 214 6 5 215 8 8 216 9 6 217 4 3 218 10 26 219 11 7 220 8 8 221 10 26 222 12 9 223 11 7 224 12 9 225 14 11 226 13 10 227 16 30 228 17 13 229 14 11 230 16 30 231 18 14 232 17 13 233 20 116 234 21 16 235 18 14 236 23 19 237 7 17 238 22 18 239 2 2 240 1 1 241 22 18 242 1 1 243 0 0 244 25 21 245 7 17 246 26 22 247 4 3 248 4 3 249 27 23 250 8 8 251 10 26 252 8 8 253 29 25 254 12 9 255 10 26 256 30 27 257 14 11 258 12 9 259 31 28 260 16 30 261 14 11 262 32 29 263 18 14 264 16 30 265 33 31 266 20 116 267 18 14 268 34 32 269 23 19 270 35 33 271 7 17 272 1 1 273 25 21 274 23 19 275 39 38 276 36 34 277 38 36 278 41 40 279 40 37 280 39 38 281 43 42 282 42 39 283 41 40 284 45 46 285 44 41 286 43 42 287 38 36 288 37 35 289 47 44 290 49 81 291 48 45 292 45 46 293 53 50 294 50 47 295 52 49 296 55 52 297 50 47 298 54 51 299 57 57 300 58 54 301 60 56 302 58 54 303 57 57 304 62 59 305 65 117 306 3 61 307 64 62 308 22 18 309 6 5 310 67 64 311 2 2 312 22 18 313 64 62 314 6 5 315 5 4 316 66 63 317 5 4 318 9 6 319 68 65 320 69 66 321 9 6 322 70 67 323 70 67 324 11 7 325 71 68 326 71 68 327 13 10 328 72 69 329 72 69 330 15 12 331 73 70 332 73 70 333 17 13 334 74 71 335 74 71 336 19 15 337 75 72 338 79 118 339 76 73 340 78 75 341 77 74 342 76 73 343 81 77 344 80 76 345 82 78 346 81 77 347 85 92 348 47 44 349 84 80 350 87 94 351 48 45 352 86 82 353 51 48 354 88 83 355 52 49 356 91 119 357 60 56 358 90 85 359 95 120 360 92 86 361 94 88 362 99 121 363 96 89 364 98 91 365 101 103 366 85 92 367 100 93 368 103 101 369 87 94 370 102 95 371 105 122 372 89 84 373 104 96 374 109 123 375 106 97 376 108 99 377 111 124 378 110 100 379 84 80 380 112 125 381 87 94 382 113 102 383 100 93 384 83 79 385 101 103 386 99 121 387 98 91 388 115 105 389 116 126 390 101 103 391 117 106 392 118 110 393 102 95 394 120 108 395 118 110 396 121 109 397 102 95 398 121 109 399 118 110 400 123 112 401 125 127 402 123 112 403 124 113 404 125 127 405 124 113 406 127 115 407</p>
        </polylist>
      </mesh>
    </geometry>
  </library_geometries>
  <library_visual_scenes>
    <visual_scene id="Scene" name="Scene">
      <node id="LAnklePitch" name="LAnklePitch" type="NODE">
        <matrix sid="transform">0.01 0 0 0 0 0.01 0 0 0 0 0.01 0 0 0 0 1</matrix>
        <instance_geometry url="#LAnkle-mesh">
          <bind_material>
            <technique_common>
              <instance_material symbol="NaoMat_Structure-material" target="#NaoMat_Structure-material">
                <bind_vertex_input input_semantic="TEXCOORD" input_set="0" semantic="UVTex"/>
              </instance_material>
              <instance_material symbol="RanklePitchUV-material" target="#RanklePitchUV-material">
                <bind_vertex_input input_semantic="TEXCOORD" input_set="0" semantic="UVTex"/>
              </instance_material>
            </technique_common>
          </bind_material>
        </instance_geometry>
      </node>
    </visual_scene>
  </library_visual_scenes>
  <scene>
    <instance_visual_scene url="#Scene"/>
  </scene>
</COLLADA>
