<?xml version="1.0" ?><COLLADA version="1.4.1" xmlns="http://www.collada.org/2005/11/COLLADASchema">
  <asset>
    <contributor>
      <author>Blender User</author>
      <authoring_tool>Blender 2.71.0 commit date:2014-06-25, commit time:18:36, hash:9337574</authoring_tool>
    </contributor>
    <created>2014-08-18T14:36:55</created>
    <modified>2014-08-18T14:36:55</modified>
    <unit meter="1" name="meter"/>
    <up_axis>Z_UP</up_axis>
  </asset>
  <library_images>
    <image id="textureNAO_png_002" name="textureNAO_png_002">
      <init_from>texture/textureNAO.png</init_from>
    </image>
  </library_images>
  <library_effects>
    <effect id="NaoMat_Structure-effect">
      <profile_COMMON>
        <technique sid="common">
          <phong>
            <emission>
              <color sid="emission">0 0 0 1</color>
            </emission>
            <ambient>
              <color sid="ambient">0 0 0 1</color>
            </ambient>
            <diffuse>
              <color sid="diffuse">0.4 0.4 0.4 1</color>
            </diffuse>
            <specular>
              <color sid="specular">0.25 0.25 0.25 1</color>
            </specular>
            <shininess>
              <float sid="shininess">9</float>
            </shininess>
            <index_of_refraction>
              <float sid="index_of_refraction">1</float>
            </index_of_refraction>
          </phong>
        </technique>
        <extra>
          <technique profile="GOOGLEEARTH">
            <double_sided>1</double_sided>
          </technique>
        </extra>
      </profile_COMMON>
      <extra><technique profile="MAX3D"><double_sided>1</double_sided></technique></extra>
    </effect>
    <effect id="RHipRollUV-effect">
      <profile_COMMON>
        <newparam sid="textureNAO_png_002-surface">
          <surface type="2D">
            <init_from>textureNAO_png_002</init_from>
          </surface>
        </newparam>
        <newparam sid="textureNAO_png_002-sampler">
          <sampler2D>
            <source>textureNAO_png_002-surface</source>
          </sampler2D>
        </newparam>
        <technique sid="common">
          <phong>
            <emission>
              <color sid="emission">0 0 0 1</color>
            </emission>
            <ambient>
              <color sid="ambient">0 0 0 1</color>
            </ambient>
            <diffuse>
              <texture texcoord="UVTex" texture="textureNAO_png_002-sampler"/>
            </diffuse>
            <specular>
              <color sid="specular">0.5 0.5 0.5 1</color>
            </specular>
            <shininess>
              <float sid="shininess">50</float>
            </shininess>
            <index_of_refraction>
              <float sid="index_of_refraction">1</float>
            </index_of_refraction>
          </phong>
        </technique>
        <extra>
          <technique profile="GOOGLEEARTH">
            <double_sided>1</double_sided>
          </technique>
        </extra>
      </profile_COMMON>
      <extra><technique profile="MAX3D"><double_sided>1</double_sided></technique></extra>
    </effect>
  </library_effects>
  <library_materials>
    <material id="NaoMat_Structure-material" name="NaoMat_Structure">
      <instance_effect url="#NaoMat_Structure-effect"/>
    </material>
    <material id="RHipRollUV-material" name="RHipRollUV">
      <instance_effect url="#RHipRollUV-effect"/>
    </material>
  </library_materials>
  <library_geometries>
    <geometry id="RUpperThigh-mesh" name="RUpperThigh">
      <mesh>
        <source id="RUpperThigh-mesh-positions">
          <float_array count="276" id="RUpperThigh-mesh-positions-array">-42.7 11.1321 12.11209 8.6 11.1321 12.11209 8.6 13.62991 9.284409 -42.7 13.6299 9.284409 -42.7 5.804417 15.67194 8.6 5.80442 15.67192 -42.7 -0.480011 16.92198 8.6 -0.4800072 16.92198 -42.7 -6.764435 15.67194 8.6 -6.764435 15.67194 -42.7 -12.09212 12.11209 8.6 -12.09211 12.11209 -42.7 -14.58992 9.284409 8.6 -14.58992 9.284409 8.599999 13.62991 -17.3156 -42.7 13.6299 -17.3156 -42.7 -14.58992 -17.31558 8.599999 -14.58992 -17.3156 -27.09669 -14.48001 -18.7878 -27.09669 -12.58001 -21.18779 -24.18306 -12.58001 -24.78307 -24.18306 -14.48001 -22.38307 -13.08778 -12.58001 -32.1967 -13.08778 -14.48001 -29.79671 -10e-7 -12.58001 -34.80002 -10e-7 -14.48001 -32.40002 13.08778 -12.58001 -32.1967 13.08778 -14.48001 -29.79671 24.18306 -12.58001 -24.78307 24.18306 -14.48001 -22.38307 -42.69668 -12.58001 -21.18779 -42.69668 -14.48001 -18.78778 -24.18306 -14.48001 -22.38307 -13.08778 -14.48001 -29.79671 -10e-7 -14.48001 -32.40002 13.08778 -14.48001 -29.79671 24.18306 -14.48001 -22.38307 -27.09669 -14.48001 -18.7878 -42.69668 -14.48001 -18.78778 -42.69668 11.61999 -21.18779 -42.69668 13.51999 -18.78778 -27.09669 13.51999 -18.7878 -27.09669 11.61999 -21.18779 24.18306 11.61999 -24.78307 13.08778 11.61999 -32.1967 13.08778 13.51999 -29.79671 24.18306 13.51999 -22.38307 -2e-6 11.61999 -34.80003 -2e-6 13.51999 -32.40002 -13.08778 11.61999 -32.1967 -13.08778 13.51999 -29.79671 -24.18306 11.61999 -24.78307 -24.18306 13.51999 -22.38307 -27.09669 13.51999 -18.7878 -42.69668 13.51999 -18.78778 -2e-6 13.51999 -32.40002 -13.08778 13.51999 -29.79671 -24.18306 13.51999 -22.38307 13.08778 13.51999 -29.79671 24.18306 13.51999 -22.38307 -42.69668 -12.58001 -21.18779 -42.69668 -14.48001 -18.78778 -42.69668 13.51999 -18.78778 -42.69668 11.61999 -21.18779 -42.7 13.6299 -17.3156 -42.7 -14.58992 -17.31558 -42.7 13.6299 9.284409 -42.7 -14.58992 9.284409 -42.7 -12.09212 12.11209 -42.7 11.1321 12.11209 -42.7 -6.764435 15.67194 -42.7 5.804417 15.67194 -42.7 -0.480011 16.92198 8.6 13.62991 9.284409 8.6 -14.58992 9.284409 8.599999 -14.58992 -17.3156 8.599999 13.62991 -17.3156 8.6 11.1321 12.11209 8.6 -12.09211 12.11209 8.6 5.80442 15.67192 8.6 -6.764435 15.67194 8.6 -0.4800072 16.92198 24.18306 13.51999 -22.38307 24.18306 13.51999 -17.38307 24.18306 -14.48001 -17.38307 24.18306 -14.48001 -22.38307 8.599999 13.62991 -17.3156 8.599999 -14.58992 -17.3156 24.18306 -14.48001 -17.38307 24.18306 13.51999 -17.38307 24.18306 13.51999 -17.38307 24.18306 -14.48001 -17.38307</float_array>
          <technique_common>
            <accessor count="92" source="#RUpperThigh-mesh-positions-array" stride="3">
              <param name="X" type="float"/>
              <param name="Y" type="float"/>
              <param name="Z" type="float"/>
            </accessor>
          </technique_common>
        </source>
        <source id="RUpperThigh-mesh-normals">
          <float_array count="276" id="RUpperThigh-mesh-normals-array">0 0.6579791 0.7530137 0 0.6579791 0.7530137 0 0.9352703 0.3539232 0 0.3826716 0.9238563 0 0.3826716 0.9238563 0 0 1 0 -0.3826716 0.9238563 0 0 1 0 -0.6579791 0.7530137 0 -0.6579791 0.7530137 0 -0.9352703 0.3539232 0 -0.9352703 0.3539232 3.35704e-4 0.9998779 -0.01379436 0 0.9992981 -0.03720206 0 -0.9992981 -0.03720206 3.35704e-4 -0.9998779 -0.01379436 -0.4354991 -0.4428235 -0.7837153 -0.6138798 -0.3646351 -0.7000946 -0.5367901 -0.6614887 -0.5236671 -0.2781457 -0.7530748 -0.5961791 0 -0.7840205 -0.6206855 -0.3398541 -0.4021424 -0.8501236 0.3398541 -0.4021424 -0.8501236 0.2781457 -0.7530748 -0.5961791 0.8048036 -0.3030793 -0.5103 0.7893307 -0.4813379 -0.3810541 0 -0.4354686 -0.900174 -0.2355113 -0.7619861 -0.6032289 0 -1 0 0 -1 0 0 -1 0 0 -1 0 3.66222e-4 -0.9998779 -0.01388591 0 -0.9983215 -0.05783253 0 -0.9972229 -0.07443463 0 0.4354686 -0.900174 0 0.7840205 -0.6206855 -0.2355113 0.7619861 -0.6032289 0.8048036 0.3030793 -0.5103 0.3398541 0.4021729 -0.8501236 0.2781457 0.7530748 -0.5961791 0 0.4155706 -0.9095432 0 0.7840205 -0.6206855 -0.3398541 0.4021424 -0.8501236 -0.2781457 0.7530748 -0.5961791 -0.6138798 0.3646351 -0.7000946 -0.5367901 0.6614887 -0.5236671 -0.4354991 0.4428235 -0.7837153 0 -0.4155706 -0.9095432 0 0.9983215 -0.05783253 0 1 0 0 1 0 0 1 0 3.66222e-4 0.9998779 -0.01388591 0 1 0 -0.9999695 0 -0.001434326 -0.9999695 0 -0.001434326 -1 0 0 -0.9999695 0 -0.001098632 -0.9999695 0 0 -0.9999695 0 -0.001098632 -1 0 0 -1 0 0 -1 0 0 -1 0 0 -1 0 0 -1 0 0 1 0 0 1 0 0 1 0 0 1 0 0 1 0 0 1 0 0 1 0 0 0.9999695 0 0 0.7893307 0.4813379 -0.3810541 1 0 0 1 0 0 1 0 0 0.004303097 0 0.9999695 0.004303097 0 0.9999695 0.004303097 0 0.9999695 5.18815e-4 0.9997864 -0.0199896 5.18815e-4 -0.9997864 -0.0199896 0 0.9352703 0.3539232 0 -0.3826716 0.9238563 0 -0.7840205 -0.6206855 0 0.9972229 -0.07443463 -1 0 0 1 0 0 1 0 0 0.004303097 0 0.9999695</float_array>
          <technique_common>
            <accessor count="92" source="#RUpperThigh-mesh-normals-array" stride="3">
              <param name="X" type="float"/>
              <param name="Y" type="float"/>
              <param name="Z" type="float"/>
            </accessor>
          </technique_common>
        </source>
        <source id="RUpperThigh-mesh-map-0">
          <float_array count="552" id="RUpperThigh-mesh-map-0-array">0.03155726 0.8399482 0.09956985 0.8399474 0.09956991 0.8449495 0.03155726 0.8399482 0.03155714 0.8314532 0.09956973 0.8314524 0.09956961 0.8229573 0.09956973 0.8314524 0.03155714 0.8314532 0.09956949 0.8144623 0.09956961 0.8229573 0.03155702 0.8229582 0.03155678 0.8059682 0.09956938 0.8059673 0.09956949 0.8144623 0.03155672 0.8009661 0.09956932 0.8009652 0.09956938 0.8059673 0.09956991 0.8449495 0.09957033 0.8802154 0.03155767 0.8802161 0.0315563 0.7657003 0.09956884 0.7656995 0.09956932 0.8009652 0.1615284 0.8262404 0.1605145 0.81982 0.1640401 0.8215358 0.163972 0.8036071 0.1640401 0.8215358 0.1605145 0.81982 0.1650373 0.7853079 0.163972 0.8036071 0.1600904 0.802291 0.1617717 0.7681498 0.1657047 0.7669948 0.1650373 0.7853079 0.1619683 0.7516612 0.1653449 0.748922 0.1657047 0.7669948 0.1590974 0.8476002 0.1615284 0.8262404 0.1657049 0.8275371 0.05610555 0.7589765 0.07081615 0.7491484 0.08816796 0.745698 0.1055194 0.7491505 0.1202289 0.7589803 0.05224239 0.7637428 0.0315563 0.7657003 0.03156065 0.7637432 0.05224239 0.7637428 0.126963 0.8476949 0.1228979 0.8481249 0.1202932 0.8257148 0.1340705 0.7488309 0.1318672 0.7653352 0.1281064 0.7636035 0.1318672 0.7653352 0.1304571 0.7823269 0.126187 0.7819598 0.1289437 0.7996358 0.1248247 0.8005028 0.126187 0.7819598 0.1266037 0.8177004 0.1226147 0.8192175 0.1248247 0.8005028 0.1248864 0.824589 0.1202932 0.8257148 0.1226147 0.8192175 0.1289437 0.7996358 0.1304571 0.7823269 0.1607967 0.7850993 0.1607967 0.7850993 0.1304571 0.7823269 0.1318672 0.7653352 0.1617717 0.7681498 0.1318672 0.7653352 0.1340705 0.7488309 0.1605145 0.81982 0.1266037 0.8177004 0.1289437 0.7996358 0.1615284 0.8262404 0.1248864 0.824589 0.1266037 0.8177004 0.1615284 0.8262404 0.1590974 0.8476002 0.126963 0.8476949 0.03155767 0.8802161 0.09957033 0.8802154 0.05224418 0.8821731 0.08816999 0.9002169 0.07081818 0.8967669 0.0561074 0.8869393 0.05224418 0.8821731 0.1202304 0.886934 0.1055213 0.896764 0.1575608 0.8513696 0.1204389 0.8513695 0.122958 0.8481876 0.1202932 0.8533213 0.1204389 0.8513695 0.1575608 0.8513696 0.1202932 0.8885872 0.1202932 0.8533213 0.1577066 0.8533214 0.1202932 0.8885872 0.1577066 0.8885872 0.1543951 0.8923361 0.1236047 0.892336 0.1543951 0.8923361 0.1473316 0.8970556 0.1306681 0.8970556 0.1473316 0.8970556 0.1389999 0.8987129 0.1951826 0.8834534 0.1577693 0.8834534 0.1577693 0.8481876 0.1951826 0.8834534 0.1918711 0.8872023 0.1610808 0.8872023 0.1848077 0.8919219 0.1681442 0.8919219 0.1610808 0.8872023 0.1848077 0.8919219 0.1764759 0.8935793 0.1681442 0.8919219 0.1619683 0.7516612 0.1340705 0.7488309 0.1311782 0.745698 0.1574151 0.8987756 0.1574151 0.9054045 0.1202932 0.9054045 0.1951826 0.9143019 0.1577693 0.9143019 0.157915 0.893642 0.09957033 0.8802154 0.1202305 0.8803051 0.1202304 0.886934 0.1202289 0.7589803 0.1202291 0.7656092 0.09956884 0.7656995 0.03155732 0.8449503 0.03155726 0.8399482 0.09956991 0.8449495 0.09956985 0.8399474 0.03155726 0.8399482 0.09956973 0.8314524 0.03155702 0.8229582 0.09956961 0.8229573 0.03155714 0.8314532 0.0315569 0.8144631 0.09956949 0.8144623 0.03155702 0.8229582 0.0315569 0.8144631 0.03155678 0.8059682 0.09956949 0.8144623 0.03155678 0.8059682 0.03155672 0.8009661 0.09956938 0.8059673 0.03155732 0.8449503 0.09956991 0.8449495 0.03155767 0.8802161 0.03155672 0.8009661 0.0315563 0.7657003 0.09956932 0.8009652 0.1657049 0.8275371 0.1615284 0.8262404 0.1640401 0.8215358 0.1600904 0.802291 0.163972 0.8036071 0.1605145 0.81982 0.1607967 0.7850993 0.1650373 0.7853079 0.1600904 0.802291 0.1607967 0.7850993 0.1617717 0.7681498 0.1650373 0.7853079 0.1617717 0.7681498 0.1619683 0.7516612 0.1657047 0.7669948 0.1628242 0.8480789 0.1590974 0.8476002 0.1657049 0.8275371 0.1055194 0.7491505 0.05610555 0.7589765 0.08816796 0.745698 0.05610555 0.7589765 0.1055194 0.7491505 0.05224239 0.7637428 0.09956884 0.7656995 0.0315563 0.7657003 0.05224239 0.7637428 0.1248864 0.824589 0.126963 0.8476949 0.1202932 0.8257148 0.1311782 0.745698 0.1340705 0.7488309 0.1281064 0.7636035 0.1281064 0.7636035 0.1318672 0.7653352 0.126187 0.7819598 0.1304571 0.7823269 0.1289437 0.7996358 0.126187 0.7819598 0.1289437 0.7996358 0.1266037 0.8177004 0.1248247 0.8005028 0.1266037 0.8177004 0.1248864 0.824589 0.1226147 0.8192175 0.1600904 0.802291 0.1289437 0.7996358 0.1607967 0.7850993 0.1617717 0.7681498 0.1607967 0.7850993 0.1318672 0.7653352 0.1619683 0.7516612 0.1617717 0.7681498 0.1340705 0.7488309 0.1600904 0.802291 0.1605145 0.81982 0.1289437 0.7996358 0.1605145 0.81982 0.1615284 0.8262404 0.1266037 0.8177004 0.1248864 0.824589 0.1615284 0.8262404 0.126963 0.8476949 0.03156208 0.8821733 0.03155767 0.8802161 0.05224418 0.8821731 0.1055213 0.896764 0.08816999 0.9002169 0.0561074 0.8869393 0.0561074 0.8869393 0.05224418 0.8821731 0.1055213 0.896764 0.1550419 0.8481876 0.1575608 0.8513696 0.122958 0.8481876 0.1577066 0.8533214 0.1202932 0.8533213 0.1575608 0.8513696 0.1577066 0.8885872 0.1202932 0.8885872 0.1577066 0.8533214 0.1236047 0.892336 0.1202932 0.8885872 0.1543951 0.8923361 0.1306681 0.8970556 0.1236047 0.892336 0.1473316 0.8970556 0.1951826 0.8481876 0.1951826 0.8834534 0.1577693 0.8481876 0.1577693 0.8834534 0.1951826 0.8834534 0.1610808 0.8872023 0.1918711 0.8872023 0.1848077 0.8919219 0.1610808 0.8872023 0.1653449 0.748922 0.1619683 0.7516612 0.1311782 0.745698 0.1202932 0.8987756 0.1574151 0.8987756 0.1202932 0.9054045 0.1950368 0.893642 0.1951826 0.9143019 0.157915 0.893642 0.05224418 0.8821731 0.09957033 0.8802154 0.1202304 0.886934 0.05224239 0.7637428 0.1202289 0.7589803 0.09956884 0.7656995</float_array>
          <technique_common>
            <accessor count="276" source="#RUpperThigh-mesh-map-0-array" stride="2">
              <param name="S" type="float"/>
              <param name="T" type="float"/>
            </accessor>
          </technique_common>
        </source>
        <vertices id="RUpperThigh-mesh-vertices">
          <input semantic="POSITION" source="#RUpperThigh-mesh-positions"/>
        </vertices>
        <polylist count="92" material="RHipRollUV-material">
          <input offset="0" semantic="VERTEX" source="#RUpperThigh-mesh-vertices"/>
          <input offset="1" semantic="NORMAL" source="#RUpperThigh-mesh-normals"/>
          <input offset="2" semantic="TEXCOORD" set="0" source="#RUpperThigh-mesh-map-0"/>
          <vcount>3 3 3 3 3 3 3 3 3 3 3 3 3 3 3 3 3 3 3 3 3 3 3 3 3 3 3 3 3 3 3 3 3 3 3 3 3 3 3 3 3 3 3 3 3 3 3 3 3 3 3 3 3 3 3 3 3 3 3 3 3 3 3 3 3 3 3 3 3 3 3 3 3 3 3 3 3 3 3 3 3 3 3 3 3 3 3 3 3 3 3 3 </vcount>
          <p>0 0 0 1 1 1 2 2 2 0 0 3 4 3 4 5 4 5 7 5 6 5 4 7 4 3 8 9 6 9 7 5 10 6 7 11 10 8 12 11 9 13 9 6 14 12 10 15 13 11 16 11 9 17 2 2 18 14 12 19 15 13 20 16 14 21 17 15 22 13 11 23 19 16 24 20 17 25 21 18 26 23 19 27 21 18 28 20 17 29 25 20 30 23 19 31 22 21 32 26 22 33 27 23 34 25 20 35 28 24 36 29 25 37 27 23 38 30 26 39 19 16 40 18 27 41 32 28 42 33 29 43 34 30 44 35 31 45 36 32 46 37 33 47 16 14 48 38 34 49 37 33 50 39 35 51 40 36 52 41 37 53 43 38 54 44 39 55 45 40 56 44 39 57 47 41 58 48 42 59 49 43 60 50 44 61 48 42 62 51 45 63 52 46 64 50 44 65 42 47 66 41 37 67 52 46 68 49 43 69 47 41 70 24 48 71 24 48 72 47 41 73 44 39 74 26 22 75 44 39 76 43 38 77 20 17 78 51 45 79 49 43 80 19 16 81 42 47 82 51 45 83 19 16 84 30 26 85 39 35 86 15 13 87 14 12 88 53 49 89 55 50 90 56 51 91 57 52 92 53 49 93 59 53 94 58 54 95 61 55 96 62 56 97 63 57 98 64 58 99 62 56 100 61 55 101 66 59 102 64 58 103 65 60 104 66 59 105 67 61 106 68 62 107 69 63 108 68 62 109 70 64 110 71 65 111 70 64 112 72 66 113 73 67 114 74 68 115 75 69 116 73 67 117 77 70 118 78 71 119 79 72 120 80 73 121 78 71 122 79 72 123 81 74 124 80 73 125 28 24 126 43 38 127 46 75 128 82 76 129 83 77 130 84 78 131 86 79 132 87 80 133 88 81 134 14 12 135 90 82 136 59 53 137 36 32 138 91 83 139 17 15 140 3 84 141 0 0 142 2 2 143 1 1 144 0 0 145 5 4 146 6 7 147 7 5 148 4 3 149 8 85 150 9 6 151 6 7 152 8 85 153 10 8 154 9 6 155 10 8 156 12 10 157 11 9 158 3 84 159 2 2 160 15 13 161 12 10 162 16 14 163 13 11 164 18 27 165 19 16 166 21 18 167 22 21 168 23 19 169 20 17 170 24 48 171 25 20 172 22 21 173 24 48 174 26 22 175 25 20 176 26 22 177 28 24 178 27 23 179 31 86 180 30 26 181 18 27 182 35 31 183 32 28 184 34 30 185 32 28 186 35 31 187 37 33 188 17 15 189 16 14 190 37 33 191 42 47 192 39 35 193 41 37 194 46 75 195 43 38 196 45 40 197 45 40 198 44 39 199 48 42 200 47 41 201 49 43 202 48 42 203 49 43 204 51 45 205 50 44 206 51 45 207 42 47 208 52 46 209 22 21 210 49 43 211 24 48 212 26 22 213 24 48 214 44 39 215 28 24 216 26 22 217 43 38 218 22 21 219 20 17 220 49 43 221 20 17 222 19 16 223 51 45 224 42 47 225 19 16 226 39 35 227 54 87 228 15 13 229 53 49 230 58 54 231 55 50 232 57 52 233 57 52 234 53 49 235 58 54 236 60 88 237 61 55 238 63 57 239 65 60 240 64 58 241 61 55 242 67 61 243 66 59 244 65 60 245 69 63 246 66 59 247 68 62 248 71 65 249 69 63 250 70 64 251 76 89 252 73 67 253 75 69 254 74 68 255 73 67 256 78 71 257 77 70 258 79 72 259 78 71 260 29 25 261 28 24 262 46 75 263 85 90 264 82 76 265 84 78 266 89 91 267 86 79 268 88 81 269 53 49 270 14 12 271 59 53 272 37 33 273 36 32 274 17 15 275</p>
        </polylist>
      </mesh>
    </geometry>
  </library_geometries>
  <library_visual_scenes>
    <visual_scene id="Scene" name="Scene">
      <node id="RHipRoll" name="RHipRoll" type="NODE">
        <matrix sid="transform">0.01 0 0 0 0 0.01 0 0 0 0 0.01 0 0 0 0 1</matrix>
        <instance_geometry url="#RUpperThigh-mesh">
          <bind_material>
            <technique_common>
              <instance_material symbol="NaoMat_Structure-material" target="#NaoMat_Structure-material">
                <bind_vertex_input input_semantic="TEXCOORD" input_set="0" semantic="UVTex"/>
              </instance_material>
              <instance_material symbol="RHipRollUV-material" target="#RHipRollUV-material">
                <bind_vertex_input input_semantic="TEXCOORD" input_set="0" semantic="UVTex"/>
              </instance_material>
            </technique_common>
          </bind_material>
        </instance_geometry>
      </node>
    </visual_scene>
  </library_visual_scenes>
  <scene>
    <instance_visual_scene url="#Scene"/>
  </scene>
</COLLADA>
