<?xml version="1.0" ?>
<robot xmlns:xacro="http://ros.org/wiki/xacro">

  <xacro:include filename="$(find tripebot_description)/urdf/materials.xacro"/>
  <xacro:include filename="$(find tripebot_description)/urdf/nao/plugins/imu_plugins.gazebo.xacro"/>

  <xacro:property name="meshes_folder" value="package://tripebot_description/meshes/nao"/>

  <!-- Torso Macro -->

  <xacro:macro name="torso">    

    <!-- Torso -->

    <link name="torso_link">
      <inertial>
        <mass value="0.03"/>
        <inertia ixx="0.00308361"
                 ixy="1.43116e-05"
                 ixz="-3.30211e-05"
                 iyy="0.0028835"
                 iyz="-2.70793e-05" 
                 izz="0.0015924"/>
        <origin rpy="0 0 0" xyz="-0.00413 0 0.05342"/>
      </inertial>
      <visual>
        <geometry>
          <mesh filename="${meshes_folder}/TorsoUp.dae" scale="0.1 0.1 0.1"/>
        </geometry>
        <origin rpy="0 0 0" xyz="0 0 0"/>
      </visual>
      <collision>
        <geometry>
          <mesh filename="${meshes_folder}/TorsoUp_0.10.stl" scale="0.1 0.1 0.1"/>
        </geometry>
        <origin rpy="0 0 0" xyz="0 0 0"/>
      </collision>
    </link>

    <!-- IMU -->

    <link name="imu_link"/>

    <joint name="imu_fixed_joint" type="fixed">
      <parent link="torso_link"/>
      <child link="imu_link"/>
      <origin rpy="0 0 0" xyz="-0.008 0.00606 0.027"/>
      <axis xyz="0 0 0"/>
    </joint>

    <!-- IMU Plugins -->

    <xacro:imu_sensor_plugin imu_name="imu"/>

  </xacro:macro>

  <!-- Pelvis Macro -->

  <xacro:macro name="pelvis">    

    <link name="base_link"/>    

    <link name="pelvis_link">
      <inertial>
        <mass value="0.03"/>
        <inertia ixx="0.00308361"
                 ixy="1.43116e-05"
                 ixz="-3.30211e-05"
                 iyy="0.0028835"
                 iyz="-2.70793e-05" 
                 izz="0.0015924"/>
        <origin rpy="0 0 0" xyz="-0.00413 0 -0.05342"/>
      </inertial>
      <visual>
        <geometry>
          <mesh filename="${meshes_folder}/TorsoDown.dae" scale="0.1 0.1 0.1"/>
        </geometry>
        <origin rpy="0 0 0" xyz="0 0 0"/>
      </visual>
      <collision>
        <geometry>
          <mesh filename="${meshes_folder}/TorsoDown_0.10.stl" scale="0.1 0.1 0.1"/>
        </geometry>
        <origin rpy="0 0 0" xyz="0 0 0"/>
      </collision>
    </link>

    <joint name="pelvis_joint" type="fixed">
      <parent link="base_link"/>
      <child link="pelvis_link"/>
      <origin rpy="0 0 0" xyz="0 0 0"/>
      <axis xyz="0 0 0"/>
    </joint>

  </xacro:macro>

</robot>