<?xml version="1.0" ?>
<robot xmlns:xacro="http://ros.org/wiki/xacro">  

  <xacro:macro name="rgb_camera_plugin" params="camera_name">

    <gazebo reference="${camera_name}_frame">
      <sensor name="${camera_name}" type="camera">
        <update_rate>5.0</update_rate>
        <camera name="${camera_name}">
          <horizontal_fov>1.06290551</horizontal_fov>
          <image>
            <width>640</width>
            <height>480</height>
            <format>R8G8B8</format>
          </image>
          <clip>
            <near>0.3</near>
            <far>500</far>
          </clip>
          <noise>
            <type>gaussian</type>
            <mean>0.0</mean>
            <stddev>0.007</stddev>
          </noise>
        </camera>
        <plugin filename="libgazebo_ros_camera.so" name="camera_controller">
          <robotNamespace>nao_robot</robotNamespace>
          <alwaysOn>true</alwaysOn>
          <updateRate>5.0</updateRate>
          <cameraName>${camera_name}</cameraName>
          <imageTopicName>image_raw</imageTopicName>
          <cameraInfoTopicName>camera_info</cameraInfoTopicName>
          <frameName>${camera_name}_optical_frame</frameName>
          <hackBaseline>0.07</hackBaseline>
          <distortionK1>-0.0545211</distortionK1>
          <distortionK2>0.06919734</distortionK2>
          <distortionK3>-0.0241095</distortionK3>
          <distortionT1>-0.0112245</distortionT1>
          <distortionT2>0.0</distortionT2>
        </plugin>
      </sensor>
    </gazebo>   
     
  </xacro:macro>

</robot>